…
This is a basic example which shows you how to split your series into
hydrological events:

``` r
library(dplyr)
library(loadflux)
## basic example code
data(djan)

djan %>% 
  hydro_events(q = discharge,
              datetime = time,
              window = 21)
#> # A tibble: 2,950 x 4
#>       he time                discharge    SS
#>    <dbl> <dttm>                  <dbl> <dbl>
#>  1     1 2017-06-06 12:00:00     0.778  227.
#>  2     1 2017-06-06 13:00:00     0.778   NA 
#>  3     1 2017-06-06 14:00:00     0.778  224.
#>  4     1 2017-06-06 15:00:00     0.778   NA 
#>  5     1 2017-06-06 16:00:00     0.778  271.
#>  6     1 2017-06-06 17:00:00     0.925   NA 
#>  7     1 2017-06-06 18:00:00     1.07    NA 
#>  8     1 2017-06-06 19:00:00     1.22   388.
#>  9     1 2017-06-06 20:00:00     1.25    NA 
#> 10     1 2017-06-06 21:00:00     0.933   NA 
#> # ... with 2,940 more rows
```
…
