Calculate features of a `tsibble` object in conjunction with [features()] — loadflux-features • loadflux
…
djants %>%
  features(
    time, # variable you want to explore
    feat_event
  ) # the feature summarisation you want to perform
#> # A tibble: 113 × 4
#>       he start               end                 length  
#>    <dbl> <dttm>              <dttm>              <drtn>  
#>  1     1 2017-06-06 09:00:00 2017-06-07 09:00:00 24 hours
#>  2     2 2017-06-07 10:00:00 2017-06-08 07:00:00 21 hours
#>  3     3 2017-06-08 08:00:00 2017-06-09 09:00:00 25 hours
#>  4     4 2017-06-09 10:00:00 2017-06-10 08:00:00 22 hours
#>  5     5 2017-06-10 09:00:00 2017-06-11 10:00:00 25 hours
#>  6     6 2017-06-11 11:00:00 2017-06-12 10:00:00 23 hours
#>  7     7 2017-06-12 11:00:00 2017-06-13 08:00:00 21 hours
#>  8     8 2017-06-13 09:00:00 2017-06-14 06:00:00 21 hours
#>  9     9 2017-06-14 07:00:00 2017-06-15 09:00:00 26 hours
#> 10    10 2017-06-15 10:00:00 2017-06-17 09:00:00 47 hours
#> # … with 103 more rows
…
