Exploring turbidity fluctuations • loadflux
…
Hydrological events parameters

To summarize the hydrological events parameters an approach from features package can be used. For this purpose we need to transform our dataframe into tsibble object:

library(tsibble)

df_ts <- df %>% 
  as_tsibble(key = he,
             index = time)

df_ts
#> # A tsibble: 620 x 4 [10m] <Europe/Moscow>
#> # Key:       he [6]
#>       he time                discharge   ntu
#>    <dbl> <dttm>                  <dbl> <dbl>
#>  1     1 2016-06-16 09:30:00      1.23  751.
#>  2     1 2016-06-16 09:40:00      1.23  622.
#>  3     1 2016-06-16 10:00:00      1.23  964 
#>  4     1 2016-06-16 10:10:00      1.23  804.
#>  5     1 2016-06-16 10:30:00      1.25  927.
#>  6     1 2016-06-16 10:40:00      1.26  673.
#>  7     1 2016-06-16 11:00:00      1.27  631.
#>  8     1 2016-06-16 11:10:00      1.28  645.
#>  9     1 2016-06-16 11:30:00      1.28  665.
#> 10     1 2016-06-16 11:40:00      1.29  726.
#> # ... with 610 more rows
…
